generated/SystemTop.vcd
$date
2023-11-21T16:36+0000
$end
$version
0.2
$end
$comment

$end
$timescale 1ns  $end
$scope module SystemTop $end
 $var wire 32 # io_testerDataMemDataRead $end
 $var wire 1 7 io_testerDataMemWriteEnable $end
 $var wire 32 [ io_testerDataMemDataWrite $end
 $var wire 1 ` io_start $end
 $var wire 1 i io_testerDataMemEnable $end
 $var wire 1 "! clock $end
 $var wire 16 ", io_testerDataMemAddress $end
 $var wire 1 "- dataMemory $end
 $var wire 1 "/ accelerator $end
 $var wire 1 "5 io_done $end
 $var wire 1 "Y reset $end
  $scope module dataMemory $end
   $var wire 32 ! _GEN_11 $end
   $var wire 32 ( io_testerDataWrite $end
   $var wire 1 5 clock $end
   $var wire 1 9 io_testerEnable $end
   $var wire 32 I io_dataRead $end
   $var wire 32 J io_dataWrite $end
   $var wire 1 f io_testerWriteEnable $end
   $var wire 32 g _GEN_5 $end
   $var wire 16 z io_address $end
   $var wire 1 } io_writeEnable $end
   $var wire 16 "4 io_testerAddress $end
   $var wire 32 "8 memory $end
   $var wire 32 "I io_testerDataRead $end
    $scope module memory $end
      $scope module _T_1 $end
       $var wire 16 & addr $end
       $var wire 16 3 pipeline_addr_0 $end
       $var wire 1 ; en $end
       $var wire 32 V data $end
       $var wire 32 t pipeline_data_0 $end
       $var wire 1 "0 pipeline_valid_0 $end
       $var wire 1 "= valid $end
       $var wire 1 "K mask $end
       $var wire 1 "\ clk $end
      $upscope $end
      $scope module _T $end
       $var wire 1 - clk $end
       $var wire 16 y addr $end
       $var wire 1 | en $end
       $var wire 32 "T data $end
      $upscope $end
      $scope module _T_3 $end
       $var wire 1 : pipeline_valid_0 $end
       $var wire 1 = en $end
       $var wire 1 > mask $end
       $var wire 16 C pipeline_addr_0 $end
       $var wire 16 b addr $end
       $var wire 1 w clk $end
       $var wire 32 ". pipeline_data_0 $end
       $var wire 32 "< data $end
       $var wire 1 "g valid $end
      $upscope $end
      $scope module _T_2 $end
       $var wire 1 D clk $end
       $var wire 16 K addr $end
       $var wire 32 q data $end
       $var wire 1 ") en $end
      $upscope $end
    $upscope $end
  $upscope $end
  $scope module accelerator $end
   $var wire 16 " _GEN_2 $end
   $var wire 4 $ _GEN_119 $end
   $var wire 32 % _GEN_13 $end
   $var wire 1 ' _GEN_96 $end
   $var wire 37 ) _GEN_125 $end
   $var wire 1 * _GEN_110 $end
   $var wire 37 + _GEN_28 $end
   $var wire 37 , _GEN_34 $end
   $var wire 4 . _GEN_104 $end
   $var wire 4 / _GEN_90 $end
   $var wire 1 0 _GEN_5 $end
   $var wire 4 1 _GEN_78 $end
   $var wire 37 2 _GEN_107 $end
   $var wire 32 4 _GEN_99 $end
   $var wire 16 6 _GEN_16 $end
   $var wire 4 8 _GEN_84 $end
   $var wire 32 < _GEN_72 $end
   $var wire 32 ? _GEN_87 $end
   $var wire 32 @ _GEN_8 $end
   $var wire 1 A _GEN_93 $end
   $var wire 32 B _GEN_124 $end
   $var wire 32 E _GEN_81 $end
   $var wire 4 F _GEN_75 $end
   $var wire 4 G _GEN_48 $end
   $var wire 4 H _GEN_54 $end
   $var wire 32 L _GEN_60 $end
   $var wire 32 M _GEN_69 $end
   $var wire 1 N _GEN_106 $end
   $var wire 32 O _GEN_57 $end
   $var wire 1 P _GEN_15 $end
   $var wire 37 Q _GEN_112 $end
   $var wire 32 R _GEN_63 $end
   $var wire 32 S _GEN_21 $end
   $var wire 1 T reset $end
   $var wire 32 U _GEN_92 $end
   $var wire 32 W _GEN_18 $end
   $var wire 4 X _GEN_45 $end
   $var wire 4 Y _GEN_115 $end
   $var wire 37 Z _GEN_121 $end
   $var wire 37 \ _GEN_109 $end
   $var wire 4 ] _GEN_100 $end
   $var wire 1 ^ _GEN_118 $end
   $var wire 32 _ _GEN_103 $end
   $var wire 32 a _GEN_74 $end
   $var wire 1 c _GEN_95 $end
   $var wire 1 d _GEN_80 $end
   $var wire 37 e _GEN_89 $end
   $var wire 4 h stateReg $end
   $var wire 4 j _GEN_4 $end
   $var wire 32 k _GEN_77 $end
   $var wire 32 l _GEN_83 $end
   $var wire 1 m _T $end
   $var wire 32 n _GEN_62 $end
   $var wire 32 o _GEN_98 $end
   $var wire 4 p _GEN_56 $end
   $var wire 32 r _GEN_38 $end
   $var wire 1 s _GEN_86 $end
   $var wire 32 u _GEN_44 $end
   $var wire 32 v _GEN_59 $end
   $var wire 1 x _GEN_71 $end
   $var wire 32 { _GEN_65 $end
   $var wire 32 ~ j $end
   $var wire 32 "" _GEN_32 $end
   $var wire 32 "# _GEN_47 $end
   $var wire 32 "$ _GEN_123 $end
   $var wire 37 "% _GEN_117 $end
   $var wire 1 "& io_done $end
   $var wire 16 "' _GEN_11 $end
   $var wire 32 "( _GEN_26 $end
   $var wire 1 "* io_writeEnable $end
   $var wire 1 "+ _GEN_111 $end
   $var wire 4 "1 _GEN_14 $end
   $var wire 4 "2 _GEN_20 $end
   $var wire 32 "3 _GEN_105 $end
   $var wire 32 "6 _GEN_114 $end
   $var wire 32 "7 io_dataWrite $end
   $var wire 32 "9 _GEN_85 $end
   $var wire 32 ": _GEN_91 $end
   $var wire 32 "; _GEN_108 $end
   $var wire 16 "> _GEN_6 $end
   $var wire 37 "? _GEN_23 $end
   $var wire 4 "@ _GEN_0 $end
   $var wire 4 "A _GEN_9 $end
   $var wire 16 "B io_address $end
   $var wire 1 "C clock $end
   $var wire 1 "D _GEN_102 $end
   $var wire 1 "E _GEN_88 $end
   $var wire 1 "F io_start $end
   $var wire 32 "G io_dataRead $end
   $var wire 1 "H _GEN_73 $end
   $var wire 32 "J _GEN_67 $end
   $var wire 32 "L _GEN_94 $end
   $var wire 32 "M l $end
   $var wire 4 "N _GEN_61 $end
   $var wire 32 "O _GEN_49 $end
   $var wire 1 "P _GEN_82 $end
   $var wire 37 "Q _GEN_40 $end
   $var wire 37 "R _GEN_97 $end
   $var wire 32 "S _GEN_55 $end
   $var wire 1 "U _GEN_76 $end
   $var wire 32 "V _GEN_113 $end
   $var wire 4 "W _GEN_70 $end
   $var wire 32 "X _GEN_79 $end
   $var wire 4 "Z _GEN_37 $end
   $var wire 4 "[ _GEN_43 $end
   $var wire 4 "] _GEN_58 $end
   $var wire 4 "^ _GEN_64 $end
   $var wire 4 "_ _GEN_31 $end
   $var wire 32 "` _GEN_116 $end
   $var wire 4 "a _GEN_46 $end
   $var wire 37 "b _GEN_101 $end
   $var wire 32 "c i $end
   $var wire 1 "d _GEN_10 $end
   $var wire 4 "e _GEN_19 $end
   $var wire 4 "f _GEN_25 $end
  $upscope $end
$upscope $end
$enddefinitions $end
$dumpvars
b00000000000000000000000000000000 n
b00000000000000000000000000000000 <
b0000 "N
0=
b0000 "1
b00000000000000000000000000000000 r
b00000000000000000000000000000000 "M
b0000000000000000000000000000000000000 \
b00000000000000000000000000000000 "#
b00000000000000000000000000000000 "8
b0000 "e
0"P
0"g
b00000000000000000000000000000000 l
b00000000000000000000000000000000 O
0m
b00000000000000000000000000000000 "I
b0000 h
b00000000000000000000000000000000 "`
0"F
b00000000000000000000000000000000 ".
05
b0000 .
0")
b0000 "]
b00000000000000000000000000000000 E
0D
b0000000000000000000000000000000000000 "b
0x
b00000000000000000000000000000000 "G
b0000 "W
b0000000000000000 b
1>
b0000000000000000000000000000000000000 +
b00000000000000000000000000000000 "X
0"U
b00000000000000000000000000000000 (
b00000000000000000000000000000000 q
0"d
b0000000000000000 C
b00000000000000000000000000000000 ?
b00000000000000000000000000000000 k
b00000000000000000000000000000000 V
b0000 "^
b0000 $
b00000000000000000000000000000000 "9
0"C
0:
b0000000000000000 "
0f
0"E
b0000000000000000 "'
b00000000000000000000000000000000 J
b00000000000000000000000000000000 "L
b0000000000000000 ">
0`
b0000 /
0"*
b0000000000000000 3
b00000000000000000000000000000000 "c
0w
b0000 "A
00
b0000 H
b00000000000000000000000000000000 t
b00000000000000000000000000000000 _
0"=
b00000000000000000000000000000000 B
b0000000000000000000000000000000000000 ,
b0000000000000000 z
b0000 Y
b00000000000000000000000000000000 "<
b0000000000000000000000000000000000000 "%
0;
b0000 p
b00000000000000000000000000000000 "S
b00000000000000000000000000000000 [
b00000000000000000000000000000000 "6
b00000000000000000000000000000000 S
b0000000000000000000000000000000000000 Z
1"K
b00000000000000000000000000000000 !
b0000 j
0i
b00000000000000000000000000000000 U
0T
b0000 8
0"H
07
b00000000000000000000000000000000 #
b00000000000000000000000000000000 "O
b00000000000000000000000000000000 ":
b0000 "_
b0000000000000000 ",
0N
09
0"-
b0000 "a
0P
0"D
0"/
b00000000000000000000000000000000 I
b00000000000000000000000000000000 4
0|
b0000000000000000000000000000000000000 "Q
b0000 "[
0-
b00000000000000000000000000000000 M
b00000000000000000000000000000000 "(
b0000 "@
0"+
0c
b0000 G
b0000000000000000 K
b0000000000000000 6
b00000000000000000000000000000000 {
0"Y
b0000000000000000000000000000000000000 e
b00000000000000000000000000000000 "$
b0000000000000000 y
b00000000000000000000000000000000 u
b0000 X
b00000000000000000000000000000000 ";
0"!
b00000000000000000000000000000000 o
0'
b00000000000000000000000000000000 "T
b00000000000000000000000000000000 "7
b00000000000000000000000000000000 ""
b0000 "2
b0000000000000000 &
b0000000000000000000000000000000000000 )
b00000000000000000000000000000000 "V
b0000 "f
b0000000000000000000000000000000000000 "?
b0000000000000000 "B
0d
b00000000000000000000000000000000 "3
b00000000000000000000000000000000 "J
b00000000000000000000000000000000 g
b00000000000000000000000000000000 R
b0000 "Z
b0000000000000000000000000000000000000 Q
0"0
b00000000000000000000000000000000 ~
0}
0"\
b0000000000000000000000000000000000000 "R
b00000000000000000000000000000000 a
b00000000000000000000000000000000 L
b0000 F
b0000 1
b0000 ]
0"&
b00000000000000000000000000000000 @
0*
b0000000000000000000000000000000000000 2
0s
0^
b0000000000000000 "4
b00000000000000000000000000000000 W
0A
0"5
b00000000000000000000000000000000 %
b00000000000000000000000000000000 v
$end
#0
b0111 "^
b0101 "2
b0001 X
b00000000000000000000000110010001 R
b0001 .
b0000000000000000000000000001100001100 "Q
b0001 Y
b0000000110010000 6
1"Y
b0001 /
1T
b0111 G
b0001 ]
1")
b00000000000000000000000000000001 W
b1000 H
b0001 $
1P
#1
b0010 "A
b0010 "_
b00000000000000000000000110010010 R
b0010 "W
15
b0010 h
b0000000000000000000000000000000000001 "%
1"C
b0010 j
b0010 "Z
b0010 /
b0010 F
b0010 1
1"!
b00000000000000000000000000000001 ""
b0000000000000000000000000000000000001 e
b0010 ]
b00000000000000000000000000000001 "M
b0010 "N
b00000000000000000000000000000001 u
b0010 "e
1-
b0010 .
b0010 "f
b0010 Y
1D
1w
b0010 p
b0000000000000000000000000000000000001 )
b0000000000000000000000000000000000001 \
b00000000000000000000000000000001 r
b0000000000000000000000000000000000001 "b
b0010 8
b00000000000000000000000000000001 "(
b0010 "[
b0010 "1
b0010 $
1"\
1m
b0010 "]
b0010 "@
#6
0-
0"!
05
0D
0w
0"C
0"\
#11
1-
1"!
15
1D
1w
1"C
1"\
#16
0-
0"!
05
0D
0w
0"C
0"\
#21
1-
1"!
15
1D
1w
1"C
1"\
#26
0-
0"!
05
0D
0w
0"C
0"\
#31
1-
1"!
15
1D
1w
1"C
1"\
#36
0-
0"!
05
0D
0w
0"C
0"\
#41
1-
1"!
15
1D
1w
1"C
1"\
#46
1f
0-
05
0D
0w
0"C
1i
0"Y
17
1"=
0T
0"!
19
0")
0"\
1|
1;
#51
1-
1"!
1"0
15
1D
1w
1"C
1"\
#56
0-
b0000000000000001 ",
b0000000000000001 y
0"!
b0000000000000001 &
05
0D
b0000000000000001 "4
0"C
0w
0"\
#61
b0000000000000001 3
1-
1"!
15
1D
1w
1"C
1"\
#66
0-
b0000000000000010 ",
b0000000000000010 y
0"!
b0000000000000010 &
05
0D
b0000000000000010 "4
0"C
0w
0"\
#71
b0000000000000010 3
1-
1"!
15
1D
1w
1"C
1"\
#76
0-
b0000000000000011 ",
b0000000000000011 y
0"!
b0000000000000011 &
05
0D
b0000000000000011 "4
0"C
0w
0"\
#81
b0000000000000011 3
1-
1"!
15
1D
1w
1"C
1"\
#86
0-
b0000000000000100 ",
b0000000000000100 y
0"!
b0000000000000100 &
05
0D
b0000000000000100 "4
0"C
0w
0"\
#91
b0000000000000100 3
1-
1"!
15
1D
1w
1"C
1"\
#96
0-
b0000000000000101 ",
b0000000000000101 y
0"!
b0000000000000101 &
05
0D
b0000000000000101 "4
0"C
0w
0"\
#101
b0000000000000101 3
1-
1"!
15
1D
1w
1"C
1"\
#106
0-
b0000000000000110 ",
b0000000000000110 y
0"!
b0000000000000110 &
05
0D
b0000000000000110 "4
0"C
0w
0"\
#111
b0000000000000110 3
1-
1"!
15
1D
1w
1"C
1"\
#116
0-
b0000000000000111 ",
b0000000000000111 y
0"!
b0000000000000111 &
05
0D
b0000000000000111 "4
0"C
0w
0"\
#121
b0000000000000111 3
1-
1"!
15
1D
1w
1"C
1"\
#126
0-
b0000000000001000 ",
b0000000000001000 y
0"!
b0000000000001000 &
05
0D
b0000000000001000 "4
0"C
0w
0"\
#131
b0000000000001000 3
1-
1"!
15
1D
1w
1"C
1"\
#136
0-
b0000000000001001 ",
b0000000000001001 y
0"!
b0000000000001001 &
05
0D
b0000000000001001 "4
0"C
0w
0"\
#141
b0000000000001001 3
1-
1"!
15
1D
1w
1"C
1"\
#146
0-
b0000000000001010 ",
b0000000000001010 y
0"!
b0000000000001010 &
05
0D
b0000000000001010 "4
0"C
0w
0"\
#151
b0000000000001010 3
1-
1"!
15
1D
1w
1"C
1"\
#156
0-
b0000000000001011 ",
b0000000000001011 y
0"!
b0000000000001011 &
05
0D
b0000000000001011 "4
0"C
0w
0"\
#161
b0000000000001011 3
1-
1"!
15
1D
1w
1"C
1"\
#166
0-
b0000000000001100 ",
b0000000000001100 y
0"!
b0000000000001100 &
05
0D
b0000000000001100 "4
0"C
0w
0"\
#171
b0000000000001100 3
1-
1"!
15
1D
1w
1"C
1"\
#176
0-
b0000000000001101 ",
b0000000000001101 y
0"!
b0000000000001101 &
05
0D
b0000000000001101 "4
0"C
0w
0"\
#181
b0000000000001101 3
1-
1"!
15
1D
1w
1"C
1"\
#186
0-
b0000000000001110 ",
b0000000000001110 y
0"!
b0000000000001110 &
05
0D
b0000000000001110 "4
0"C
0w
0"\
#191
b0000000000001110 3
1-
1"!
15
1D
1w
1"C
1"\
#196
0-
b0000000000001111 ",
b0000000000001111 y
0"!
b0000000000001111 &
05
0D
b0000000000001111 "4
0"C
0w
0"\
#201
b0000000000001111 3
1-
1"!
15
1D
1w
1"C
1"\
#206
0-
b0000000000010000 ",
b0000000000010000 y
0"!
b0000000000010000 &
05
0D
b0000000000010000 "4
0"C
0w
0"\
#211
b0000000000010000 3
1-
1"!
15
1D
1w
1"C
1"\
#216
0-
b0000000000010001 ",
b0000000000010001 y
0"!
b0000000000010001 &
05
0D
b0000000000010001 "4
0"C
0w
0"\
#221
b0000000000010001 3
1-
1"!
15
1D
1w
1"C
1"\
#226
0-
b0000000000010010 ",
b0000000000010010 y
0"!
b0000000000010010 &
05
0D
b0000000000010010 "4
0"C
0w
0"\
#231
b0000000000010010 3
1-
1"!
15
1D
1w
1"C
1"\
#236
0-
b0000000000010011 ",
b0000000000010011 y
0"!
b0000000000010011 &
05
0D
b0000000000010011 "4
0"C
0w
0"\
#241
b0000000000010011 3
1-
1"!
15
1D
1w
1"C
1"\
#246
0-
b0000000000010100 ",
b0000000000010100 y
0"!
b0000000000010100 &
05
0D
b0000000000010100 "4
0"C
0w
0"\
#251
b0000000000010100 3
1-
1"!
15
1D
1w
1"C
1"\
#256
0-
b0000000000010101 ",
b0000000000010101 y
0"!
b0000000000010101 &
05
0D
b0000000000010101 "4
0"C
0w
0"\
#261
b0000000000010101 3
1-
1"!
15
1D
1w
1"C
1"\
#266
0-
b0000000000010110 ",
b0000000000010110 y
0"!
b0000000000010110 &
05
0D
b0000000000010110 "4
0"C
0w
0"\
#271
b0000000000010110 3
1-
1"!
15
1D
1w
1"C
1"\
#276
0-
b0000000000010111 ",
b0000000000010111 y
0"!
b0000000000010111 &
05
0D
b0000000000010111 "4
0"C
0w
0"\
#281
b0000000000010111 3
1-
1"!
15
1D
1w
1"C
1"\
#286
0-
b0000000000011000 ",
b0000000000011000 y
0"!
b0000000000011000 &
05
0D
b0000000000011000 "4
0"C
0w
0"\
#291
b0000000000011000 3
1-
1"!
15
1D
1w
1"C
1"\
#296
0-
b0000000000011001 ",
b0000000000011001 y
0"!
b0000000000011001 &
05
0D
b0000000000011001 "4
0"C
0w
0"\
#301
b0000000000011001 3
1-
1"!
15
1D
1w
1"C
1"\
#306
0-
b0000000000011010 ",
b0000000000011010 y
0"!
b0000000000011010 &
05
0D
b0000000000011010 "4
0"C
0w
0"\
#311
b0000000000011010 3
1-
1"!
15
1D
1w
1"C
1"\
#316
0-
b0000000000011011 ",
b0000000000011011 y
0"!
b0000000000011011 &
05
0D
b0000000000011011 "4
0"C
0w
0"\
#321
b0000000000011011 3
1-
1"!
15
1D
1w
1"C
1"\
#326
0-
b0000000000011100 ",
b0000000000011100 y
0"!
b0000000000011100 &
05
0D
b0000000000011100 "4
0"C
0w
0"\
#331
b0000000000011100 3
1-
1"!
15
1D
1w
1"C
1"\
#336
0-
b0000000000011101 ",
b0000000000011101 y
0"!
b0000000000011101 &
05
0D
b0000000000011101 "4
0"C
0w
0"\
#341
b0000000000011101 3
1-
1"!
15
1D
1w
1"C
1"\
#346
0-
b0000000000011110 ",
b0000000000011110 y
0"!
b0000000000011110 &
05
0D
b0000000000011110 "4
0"C
0w
0"\
#351
b0000000000011110 3
1-
1"!
15
1D
1w
1"C
1"\
#356
0-
b0000000000011111 ",
b0000000000011111 y
0"!
b0000000000011111 &
05
0D
b0000000000011111 "4
0"C
0w
0"\
#361
b0000000000011111 3
1-
1"!
15
1D
1w
1"C
1"\
#366
0-
b0000000000100000 ",
b0000000000100000 y
0"!
b0000000000100000 &
05
0D
b0000000000100000 "4
0"C
0w
0"\
#371
b0000000000100000 3
1-
1"!
15
1D
1w
1"C
1"\
#376
0-
b0000000000100001 ",
b0000000000100001 y
0"!
b0000000000100001 &
05
0D
b0000000000100001 "4
0"C
0w
0"\
#381
b0000000000100001 3
1-
1"!
15
1D
1w
1"C
1"\
#386
0-
b0000000000100010 ",
b0000000000100010 y
0"!
b0000000000100010 &
05
0D
b0000000000100010 "4
0"C
0w
0"\
#391
b0000000000100010 3
1-
1"!
15
1D
1w
1"C
1"\
#396
0-
b0000000000100011 ",
b0000000000100011 y
0"!
b0000000000100011 &
05
0D
b0000000000100011 "4
0"C
0w
0"\
#401
b0000000000100011 3
1-
1"!
15
1D
1w
1"C
1"\
#406
0-
b0000000000100100 ",
b0000000000100100 y
0"!
b0000000000100100 &
05
0D
b0000000000100100 "4
0"C
0w
0"\
#411
b0000000000100100 3
1-
1"!
15
1D
1w
1"C
1"\
#416
0-
b0000000000100101 ",
b0000000000100101 y
0"!
b0000000000100101 &
05
0D
b0000000000100101 "4
0"C
0w
0"\
#421
b0000000000100101 3
1-
1"!
15
1D
1w
1"C
1"\
#426
0-
b0000000000100110 ",
b0000000000100110 y
0"!
b0000000000100110 &
05
0D
b0000000000100110 "4
0"C
0w
0"\
#431
b0000000000100110 3
1-
1"!
15
1D
1w
1"C
1"\
#436
0-
b0000000000100111 ",
b0000000000100111 y
0"!
b0000000000100111 &
05
0D
b0000000000100111 "4
0"C
0w
0"\
#441
b0000000000100111 3
1-
1"!
15
1D
1w
1"C
1"\
#446
0-
b0000000000101000 ",
b0000000000101000 y
0"!
b0000000000101000 &
05
0D
b0000000000101000 "4
0"C
0w
0"\
#451
b0000000000101000 3
1-
1"!
15
1D
1w
1"C
1"\
#456
0-
b0000000000101001 ",
b0000000000101001 y
0"!
b0000000000101001 &
05
0D
b0000000000101001 "4
0"C
0w
0"\
#461
b0000000000101001 3
1-
1"!
15
1D
1w
1"C
1"\
#466
0-
b0000000000101010 ",
b0000000000101010 y
0"!
b0000000000101010 &
05
0D
b0000000000101010 "4
0"C
0w
0"\
#471
b0000000000101010 3
1-
1"!
15
1D
1w
1"C
1"\
#476
0-
b0000000000101011 ",
b0000000000101011 y
0"!
b0000000000101011 &
05
0D
b0000000000101011 "4
0"C
0w
0"\
#481
b0000000000101011 3
1-
1"!
15
1D
1w
1"C
1"\
#486
0-
b0000000000101100 ",
b0000000000101100 y
0"!
b0000000000101100 &
05
0D
b0000000000101100 "4
0"C
0w
0"\
#491
b0000000000101100 3
1-
1"!
15
1D
1w
1"C
1"\
#496
0-
b0000000000101101 ",
b0000000000101101 y
0"!
b0000000000101101 &
05
0D
b0000000000101101 "4
0"C
0w
0"\
#501
b0000000000101101 3
1-
1"!
15
1D
1w
1"C
1"\
#506
0-
b0000000000101110 ",
b0000000000101110 y
0"!
b0000000000101110 &
05
0D
b0000000000101110 "4
0"C
0w
0"\
#511
b0000000000101110 3
1-
1"!
15
1D
1w
1"C
1"\
#516
0-
b0000000000101111 ",
b0000000000101111 y
0"!
b0000000000101111 &
05
0D
b0000000000101111 "4
0"C
0w
0"\
#521
b0000000000101111 3
1-
1"!
15
1D
1w
1"C
1"\
#526
0-
b0000000000110000 ",
b0000000000110000 y
0"!
b0000000000110000 &
05
0D
b0000000000110000 "4
0"C
0w
0"\
#531
b0000000000110000 3
1-
1"!
15
1D
1w
1"C
1"\
#536
0-
b0000000000110001 ",
b0000000000110001 y
0"!
b0000000000110001 &
05
0D
b0000000000110001 "4
0"C
0w
0"\
#541
b0000000000110001 3
1-
1"!
15
1D
1w
1"C
1"\
#546
0-
b0000000000110010 ",
b0000000000110010 y
0"!
b0000000000110010 &
05
0D
b0000000000110010 "4
0"C
0w
0"\
#551
b0000000000110010 3
1-
1"!
15
1D
1w
1"C
1"\
#556
0-
b0000000000110011 ",
b0000000000110011 y
0"!
b0000000000110011 &
05
0D
b0000000000110011 "4
0"C
0w
0"\
#561
b0000000000110011 3
1-
1"!
15
1D
1w
1"C
1"\
#566
0-
b0000000000110100 ",
b0000000000110100 y
0"!
b0000000000110100 &
05
0D
b0000000000110100 "4
0"C
0w
0"\
#571
b0000000000110100 3
1-
1"!
15
1D
1w
1"C
1"\
#576
0-
b0000000000110101 ",
b0000000000110101 y
0"!
b0000000000110101 &
05
0D
b0000000000110101 "4
0"C
0w
0"\
#581
b0000000000110101 3
1-
1"!
15
1D
1w
1"C
1"\
#586
0-
b0000000000110110 ",
b0000000000110110 y
0"!
b0000000000110110 &
05
0D
b0000000000110110 "4
0"C
0w
0"\
#591
b0000000000110110 3
1-
1"!
15
1D
1w
1"C
1"\
#596
0-
b0000000000110111 ",
b0000000000110111 y
0"!
b0000000000110111 &
05
0D
b0000000000110111 "4
0"C
0w
0"\
#601
b0000000000110111 3
1-
1"!
15
1D
1w
1"C
1"\
#606
0-
b0000000000111000 ",
b0000000000111000 y
0"!
b0000000000111000 &
05
0D
b0000000000111000 "4
0"C
0w
0"\
#611
b0000000000111000 3
1-
1"!
15
1D
1w
1"C
1"\
#616
0-
b0000000000111001 ",
b0000000000111001 y
0"!
b0000000000111001 &
05
0D
b0000000000111001 "4
0"C
0w
0"\
#621
b0000000000111001 3
1-
1"!
15
1D
1w
1"C
1"\
#626
0-
b0000000000111010 ",
b0000000000111010 y
0"!
b0000000000111010 &
05
0D
b0000000000111010 "4
0"C
0w
0"\
#631
b0000000000111010 3
1-
1"!
15
1D
1w
1"C
1"\
#636
0-
b0000000000111011 ",
b0000000000111011 y
0"!
b0000000000111011 &
05
0D
b0000000000111011 "4
0"C
0w
0"\
#641
b0000000000111011 3
1-
1"!
15
1D
1w
1"C
1"\
#646
0-
b0000000000111100 ",
b0000000000111100 y
0"!
b0000000000111100 &
05
0D
b0000000000111100 "4
0"C
0w
0"\
#651
b0000000000111100 3
1-
1"!
15
1D
1w
1"C
1"\
#656
0-
b0000000000111101 ",
b0000000000111101 y
0"!
b0000000000111101 &
05
0D
b0000000000111101 "4
0"C
0w
0"\
#661
b0000000000111101 3
1-
1"!
15
1D
1w
1"C
1"\
#666
0-
b0000000000111110 ",
b0000000000111110 y
0"!
b0000000000111110 &
05
0D
b0000000000111110 "4
0"C
0w
0"\
#671
b0000000000111110 3
1-
1"!
15
1D
1w
1"C
1"\
#676
0-
b0000000000111111 ",
b0000000000111111 y
0"!
b0000000000111111 &
05
0D
b0000000000111111 "4
0"C
0w
0"\
#681
b0000000000111111 3
1-
1"!
15
1D
1w
1"C
1"\
#686
0-
b0000000001000000 ",
b0000000001000000 y
0"!
b0000000001000000 &
05
0D
b0000000001000000 "4
0"C
0w
0"\
#691
b0000000001000000 3
1-
1"!
15
1D
1w
1"C
1"\
#696
0-
b0000000001000001 ",
b0000000001000001 y
0"!
b0000000001000001 &
05
0D
b0000000001000001 "4
0"C
0w
0"\
#701
b0000000001000001 3
1-
1"!
15
1D
1w
1"C
1"\
#706
0-
b0000000001000010 ",
b0000000001000010 y
0"!
b0000000001000010 &
05
0D
b0000000001000010 "4
0"C
0w
0"\
#711
b0000000001000010 3
1-
1"!
15
1D
1w
1"C
1"\
#716
0-
b0000000001000011 ",
b0000000001000011 y
0"!
b0000000001000011 &
05
0D
b0000000001000011 "4
0"C
0w
0"\
#721
b0000000001000011 3
1-
1"!
15
1D
1w
1"C
1"\
#726
0-
b0000000001000100 ",
b0000000001000100 y
0"!
b0000000001000100 &
05
0D
b0000000001000100 "4
0"C
0w
0"\
#731
b0000000001000100 3
1-
1"!
15
1D
1w
1"C
1"\
#736
0-
b0000000001000101 ",
b0000000001000101 y
0"!
b0000000001000101 &
05
0D
b0000000001000101 "4
0"C
0w
0"\
#741
b0000000001000101 3
1-
1"!
15
1D
1w
1"C
1"\
#746
0-
b0000000001000110 ",
b0000000001000110 y
0"!
b0000000001000110 &
05
0D
b0000000001000110 "4
0"C
0w
0"\
#751
b0000000001000110 3
1-
1"!
15
1D
1w
1"C
1"\
#756
0-
b0000000001000111 ",
b0000000001000111 y
0"!
b0000000001000111 &
05
0D
b0000000001000111 "4
0"C
0w
0"\
#761
b0000000001000111 3
1-
1"!
15
1D
1w
1"C
1"\
#766
0-
b0000000001001000 ",
b0000000001001000 y
0"!
b0000000001001000 &
05
0D
b0000000001001000 "4
0"C
0w
0"\
#771
b0000000001001000 3
1-
1"!
15
1D
1w
1"C
1"\
#776
0-
b0000000001001001 ",
b0000000001001001 y
0"!
b0000000001001001 &
05
0D
b0000000001001001 "4
0"C
0w
0"\
#781
b0000000001001001 3
1-
1"!
15
1D
1w
1"C
1"\
#786
0-
b0000000001001010 ",
b0000000001001010 y
0"!
b0000000001001010 &
05
0D
b0000000001001010 "4
0"C
0w
0"\
#791
b0000000001001010 3
1-
1"!
15
1D
1w
1"C
1"\
#796
0-
b0000000001001011 ",
b0000000001001011 y
0"!
b0000000001001011 &
05
0D
b0000000001001011 "4
0"C
0w
0"\
#801
b0000000001001011 3
1-
1"!
15
1D
1w
1"C
1"\
#806
0-
b0000000001001100 ",
b0000000001001100 y
0"!
b0000000001001100 &
05
0D
b0000000001001100 "4
0"C
0w
0"\
#811
b0000000001001100 3
1-
1"!
15
1D
1w
1"C
1"\
#816
0-
b0000000001001101 ",
b0000000001001101 y
0"!
b0000000001001101 &
05
0D
b0000000001001101 "4
0"C
0w
0"\
#821
b0000000001001101 3
1-
1"!
15
1D
1w
1"C
1"\
#826
0-
b0000000001001110 ",
b0000000001001110 y
0"!
b0000000001001110 &
05
0D
b0000000001001110 "4
0"C
0w
0"\
#831
b0000000001001110 3
1-
1"!
15
1D
1w
1"C
1"\
#836
0-
b0000000001001111 ",
b0000000001001111 y
0"!
b0000000001001111 &
05
0D
b0000000001001111 "4
0"C
0w
0"\
#841
b0000000001001111 3
1-
1"!
15
1D
1w
1"C
1"\
#846
0-
b0000000001010000 ",
b0000000001010000 y
0"!
b0000000001010000 &
05
0D
b0000000001010000 "4
0"C
0w
0"\
#851
b0000000001010000 3
1-
1"!
15
1D
1w
1"C
1"\
#856
0-
b0000000001010001 ",
b0000000001010001 y
0"!
b0000000001010001 &
05
0D
b0000000001010001 "4
0"C
0w
0"\
#861
b0000000001010001 3
1-
1"!
15
1D
1w
1"C
1"\
#866
0-
b0000000001010010 ",
b0000000001010010 y
0"!
b0000000001010010 &
05
0D
b0000000001010010 "4
0"C
0w
0"\
#871
b0000000001010010 3
1-
1"!
15
1D
1w
1"C
1"\
#876
0-
b0000000001010011 ",
b0000000001010011 y
0"!
b0000000001010011 &
05
0D
b0000000001010011 "4
0"C
0w
0"\
#881
b0000000001010011 3
1-
1"!
15
1D
1w
1"C
1"\
#886
0-
b0000000001010100 ",
b0000000001010100 y
0"!
b0000000001010100 &
05
0D
b0000000001010100 "4
0"C
0w
0"\
#891
b0000000001010100 3
1-
1"!
15
1D
1w
1"C
1"\
#896
0-
b0000000001010101 ",
b0000000001010101 y
0"!
b0000000001010101 &
05
0D
b0000000001010101 "4
0"C
0w
0"\
#901
b0000000001010101 3
1-
1"!
15
1D
1w
1"C
1"\
#906
0-
b0000000001010110 ",
b0000000001010110 y
0"!
b0000000001010110 &
05
0D
b0000000001010110 "4
0"C
0w
0"\
#911
b0000000001010110 3
1-
1"!
15
1D
1w
1"C
1"\
#916
0-
b0000000001010111 ",
b0000000001010111 y
0"!
b0000000001010111 &
05
0D
b0000000001010111 "4
0"C
0w
0"\
#921
b0000000001010111 3
1-
1"!
15
1D
1w
1"C
1"\
#926
0-
b0000000001011000 ",
b0000000001011000 y
0"!
b0000000001011000 &
05
0D
b0000000001011000 "4
0"C
0w
0"\
#931
b0000000001011000 3
1-
1"!
15
1D
1w
1"C
1"\
